{
	"data": [
		{
			"Crime_Rate": 7789,
			"Year": 2010,
			"State": "Alabama",
			"Arrest_Rate": 3248
		},
		{
			"Crime_Rate": 6983,
			"Year": 2010,
			"State": "Alaska",
			"Arrest_Rate": 5925
		},
		{
			"Crime_Rate": 7884,
			"Year": 2010,
			"State": "Arizona",
			"Arrest_Rate": 4489
		},
		{
			"Crime_Rate": 8128,
			"Year": 2010,
			"State": "Arkansas",
			"Arrest_Rate": 3911
		},
		{
			"Crime_Rate": 6153,
			"Year": 2010,
			"State": "California",
			"Arrest_Rate": 3644
		},
		{
			"Crime_Rate": 6010,
			"Year": 2010,
			"State": "Colorado",
			"Arrest_Rate": 4181
		},
		{
			"Crime_Rate": 4949,
			"Year": 2010,
			"State": "Connecticut",
			"Arrest_Rate": 3600
		},
		{
			"Crime_Rate": 8138,
			"Year": 2010,
			"State": "Delaware",
			"Arrest_Rate": 4223
		},
		{
			"Crime_Rate": 12218,
			"Year": 2010,
			"State": "District Of Columbia",
			"Arrest_Rate": 0
		},
		{
			"Crime_Rate": 8202,
			"Year": 2010,
			"State": "Florida",
			"Arrest_Rate": 5524
		},
		{
			"Crime_Rate": 8088,
			"Year": 2010,
			"State": "Georgia",
			"Arrest_Rate": 3511
		},
		{
			"Crime_Rate": 7154,
			"Year": 2010,
			"State": "Hawaii",
			"Arrest_Rate": 3446
		},
		{
			"Crime_Rate": 4434,
			"Year": 2010,
			"State": "Idaho",
			"Arrest_Rate": 4186
		},
		{
			"Crime_Rate": 6232,
			"Year": 2010,
			"State": "Illinois",
			"Arrest_Rate": 1135
		},
		{
			"Crime_Rate": 6714,
			"Year": 2010,
			"State": "Indiana",
			"Arrest_Rate": 2145
		},
		{
			"Crime_Rate": 5032,
			"Year": 2010,
			"State": "Iowa",
			"Arrest_Rate": 3506
		},
		{
			"Crime_Rate": 6978,
			"Year": 2010,
			"State": "Kansas",
			"Arrest_Rate": 2789
		},
		{
			"Crime_Rate": 5588,
			"Year": 2010,
			"State": "Kentucky",
			"Arrest_Rate": 3415
		},
		{
			"Crime_Rate": 8393,
			"Year": 2010,
			"State": "Louisiana",
			"Arrest_Rate": 3152
		},
		{
			"Crime_Rate": 5203,
			"Year": 2010,
			"State": "Maine",
			"Arrest_Rate": 4108
		},
		{
			"Crime_Rate": 7090,
			"Year": 2010,
			"State": "Maryland",
			"Arrest_Rate": 4358
		},
		{
			"Crime_Rate": 5634,
			"Year": 2010,
			"State": "Massachusetts",
			"Arrest_Rate": 2265
		},
		{
			"Crime_Rate": 6408,
			"Year": 2010,
			"State": "Michigan",
			"Arrest_Rate": 2790
		},
		{
			"Crime_Rate": 5616,
			"Year": 2010,
			"State": "Minnesota",
			"Arrest_Rate": 3407
		},
		{
			"Crime_Rate": 6509,
			"Year": 2010,
			"State": "Mississippi",
			"Arrest_Rate": 3700
		},
		{
			"Crime_Rate": 7603,
			"Year": 2010,
			"State": "Missouri",
			"Arrest_Rate": 4834
		},
		{
			"Crime_Rate": 5632,
			"Year": 2010,
			"State": "Montana",
			"Arrest_Rate": 2533
		},
		{
			"Crime_Rate": 5868,
			"Year": 2010,
			"State": "Nebraska",
			"Arrest_Rate": 4552
		},
		{
			"Crime_Rate": 6871,
			"Year": 2010,
			"State": "Nevada",
			"Arrest_Rate": 5630
		},
		{
			"Crime_Rate": 4707,
			"Year": 2010,
			"State": "New Hampshire",
			"Arrest_Rate": 3527
		},
		{
			"Crime_Rate": 4779,
			"Year": 2010,
			"State": "New Jersey",
			"Arrest_Rate": 4001
		},
		{
			"Crime_Rate": 8049,
			"Year": 2010,
			"State": "New Mexico",
			"Arrest_Rate": 5376
		},
		{
			"Crime_Rate": 4666,
			"Year": 2010,
			"State": "New York",
			"Arrest_Rate": 1747
		},
		{
			"Crime_Rate": 7621,
			"Year": 2010,
			"State": "North Carolina",
			"Arrest_Rate": 4464
		},
		{
			"Crime_Rate": 3987,
			"Year": 2010,
			"State": "North Dakota",
			"Arrest_Rate": 3702
		},
		{
			"Crime_Rate": 7121,
			"Year": 2010,
			"State": "Ohio",
			"Arrest_Rate": 2363
		},
		{
			"Crime_Rate": 7790,
			"Year": 2010,
			"State": "Oklahoma",
			"Arrest_Rate": 4104
		},
		{
			"Crime_Rate": 6530,
			"Year": 2010,
			"State": "Oregon",
			"Arrest_Rate": 3222
		},
		{
			"Crime_Rate": 5078,
			"Year": 2010,
			"State": "Pennsylvania",
			"Arrest_Rate": 3565
		},
		{
			"Crime_Rate": 5626,
			"Year": 2010,
			"State": "Rhode Island",
			"Arrest_Rate": 3410
		},
		{
			"Crime_Rate": 8996,
			"Year": 2010,
			"State": "South Carolina",
			"Arrest_Rate": 4227
		},
		{
			"Crime_Rate": 4242,
			"Year": 2010,
			"State": "South Dakota",
			"Arrest_Rate": 3281
		},
		{
			"Crime_Rate": 8542,
			"Year": 2010,
			"State": "Tennessee",
			"Arrest_Rate": 5164
		},
		{
			"Crime_Rate": 8467,
			"Year": 2010,
			"State": "Texas",
			"Arrest_Rate": 4455
		},
		{
			"Crime_Rate": 6785,
			"Year": 2010,
			"State": "Utah",
			"Arrest_Rate": 4527
		},
		{
			"Crime_Rate": 4825,
			"Year": 2010,
			"State": "Vermont",
			"Arrest_Rate": 1831
		},
		{
			"Crime_Rate": 5081,
			"Year": 2010,
			"State": "Virginia",
			"Arrest_Rate": 4418
		},
		{
			"Crime_Rate": 8041,
			"Year": 2010,
			"State": "Washington",
			"Arrest_Rate": 3238
		},
		{
			"Crime_Rate": 5108,
			"Year": 2010,
			"State": "West Virginia",
			"Arrest_Rate": 2502
		},
		{
			"Crime_Rate": 5513,
			"Year": 2010,
			"State": "Wisconsin",
			"Arrest_Rate": 5440
		},
		{
			"Crime_Rate": 5315,
			"Year": 2010,
			"State": "Wyoming",
			"Arrest_Rate": 6240
		},
		{
			"Crime_Rate": 8050,
			"Year": 2011,
			"State": "Alabama",
			"Arrest_Rate": 44
		},
		{
			"Crime_Rate": 6496,
			"Year": 2011,
			"State": "Alaska",
			"Arrest_Rate": 5472
		},
		{
			"Crime_Rate": 7938,
			"Year": 2011,
			"State": "Arizona",
			"Arrest_Rate": 4415
		},
		{
			"Crime_Rate": 8480,
			"Year": 2011,
			"State": "Arkansas",
			"Arrest_Rate": 3685
		},
		{
			"Crime_Rate": 5991,
			"Year": 2011,
			"State": "California",
			"Arrest_Rate": 3141
		},
		{
			"Crime_Rate": 5819,
			"Year": 2011,
			"State": "Colorado",
			"Arrest_Rate": 4072
		},
		{
			"Crime_Rate": 4856,
			"Year": 2011,
			"State": "Connecticut",
			"Arrest_Rate": 3326
		},
		{
			"Crime_Rate": 7996,
			"Year": 2011,
			"State": "Delaware",
			"Arrest_Rate": 4166
		},
		{
			"Crime_Rate": 11982,
			"Year": 2011,
			"State": "District Of Columbia",
			"Arrest_Rate": 1409
		},
		{
			"Crime_Rate": 8064,
			"Year": 2011,
			"State": "Florida",
			"Arrest_Rate": 4993
		},
		{
			"Crime_Rate": 8031,
			"Year": 2011,
			"State": "Georgia",
			"Arrest_Rate": 3564
		},
		{
			"Crime_Rate": 6870,
			"Year": 2011,
			"State": "Hawaii",
			"Arrest_Rate": 0
		},
		{
			"Crime_Rate": 4556,
			"Year": 2011,
			"State": "Idaho",
			"Arrest_Rate": 3978
		},
		{
			"Crime_Rate": 6205,
			"Year": 2011,
			"State": "Illinois",
			"Arrest_Rate": 1033
		},
		{
			"Crime_Rate": 6987,
			"Year": 2011,
			"State": "Indiana",
			"Arrest_Rate": 2989
		},
		{
			"Crime_Rate": 5217,
			"Year": 2011,
			"State": "Iowa",
			"Arrest_Rate": 3427
		},
		{
			"Crime_Rate": 5071,
			"Year": 2011,
			"State": "Kansas",
			"Arrest_Rate": 2550
		},
		{
			"Crime_Rate": 5931,
			"Year": 2011,
			"State": "Kentucky",
			"Arrest_Rate": 4032
		},
		{
			"Crime_Rate": 8477,
			"Year": 2011,
			"State": "Louisiana",
			"Arrest_Rate": 2603
		},
		{
			"Crime_Rate": 5339,
			"Year": 2011,
			"State": "Maine",
			"Arrest_Rate": 3883
		},
		{
			"Crime_Rate": 6701,
			"Year": 2011,
			"State": "Maryland",
			"Arrest_Rate": 3922
		},
		{
			"Crime_Rate": 5360,
			"Year": 2011,
			"State": "Massachusetts",
			"Arrest_Rate": 2079
		},
		{
			"Crime_Rate": 5975,
			"Year": 2011,
			"State": "Michigan",
			"Arrest_Rate": 2543
		},
		{
			"Crime_Rate": 5554,
			"Year": 2011,
			"State": "Minnesota",
			"Arrest_Rate": 3292
		},
		{
			"Crime_Rate": 6571,
			"Year": 2011,
			"State": "Mississippi",
			"Arrest_Rate": 3451
		},
		{
			"Crime_Rate": 7521,
			"Year": 2011,
			"State": "Missouri",
			"Arrest_Rate": 4911
		},
		{
			"Crime_Rate": 5340,
			"Year": 2011,
			"State": "Montana",
			"Arrest_Rate": 2975
		},
		{
			"Crime_Rate": 5995,
			"Year": 2011,
			"State": "Nebraska",
			"Arrest_Rate": 4445
		},
		{
			"Crime_Rate": 6289,
			"Year": 2011,
			"State": "Nevada",
			"Arrest_Rate": 5217
		},
		{
			"Crime_Rate": 5406,
			"Year": 2011,
			"State": "New Hampshire",
			"Arrest_Rate": 3088
		},
		{
			"Crime_Rate": 4911,
			"Year": 2011,
			"State": "New Jersey",
			"Arrest_Rate": 3771
		},
		{
			"Crime_Rate": 8222,
			"Year": 2011,
			"State": "New Mexico",
			"Arrest_Rate": 5231
		},
		{
			"Crime_Rate": 4608,
			"Year": 2011,
			"State": "New York",
			"Arrest_Rate": 1556
		},
		{
			"Crime_Rate": 7693,
			"Year": 2011,
			"State": "North Carolina",
			"Arrest_Rate": 5124
		},
		{
			"Crime_Rate": 4391,
			"Year": 2011,
			"State": "North Dakota",
			"Arrest_Rate": 3799
		},
		{
			"Crime_Rate": 7205,
			"Year": 2011,
			"State": "Ohio",
			"Arrest_Rate": 2224
		},
		{
			"Crime_Rate": 7660,
			"Year": 2011,
			"State": "Oklahoma",
			"Arrest_Rate": 3549
		},
		{
			"Crime_Rate": 6800,
			"Year": 2011,
			"State": "Oregon",
			"Arrest_Rate": 3449
		},
		{
			"Crime_Rate": 5173,
			"Year": 2011,
			"State": "Pennsylvania",
			"Arrest_Rate": 3287
		},
		{
			"Crime_Rate": 5818,
			"Year": 2011,
			"State": "Rhode Island",
			"Arrest_Rate": 2841
		},
		{
			"Crime_Rate": 9036,
			"Year": 2011,
			"State": "South Carolina",
			"Arrest_Rate": 3635
		},
		{
			"Crime_Rate": 4226,
			"Year": 2011,
			"State": "South Dakota",
			"Arrest_Rate": 3524
		},
		{
			"Crime_Rate": 8431,
			"Year": 2011,
			"State": "Tennessee",
			"Arrest_Rate": 6043
		},
		{
			"Crime_Rate": 7784,
			"Year": 2011,
			"State": "Texas",
			"Arrest_Rate": 4004
		},
		{
			"Crime_Rate": 6370,
			"Year": 2011,
			"State": "Utah",
			"Arrest_Rate": 1681
		},
		{
			"Crime_Rate": 5111,
			"Year": 2011,
			"State": "Vermont",
			"Arrest_Rate": 1741
		},
		{
			"Crime_Rate": 4909,
			"Year": 2011,
			"State": "Virginia",
			"Arrest_Rate": 4293
		},
		{
			"Crime_Rate": 7749,
			"Year": 2011,
			"State": "Washington",
			"Arrest_Rate": 1894
		},
		{
			"Crime_Rate": 4799,
			"Year": 2011,
			"State": "West Virginia",
			"Arrest_Rate": 2707
		},
		{
			"Crime_Rate": 5400,
			"Year": 2011,
			"State": "Wisconsin",
			"Arrest_Rate": 5565
		},
		{
			"Crime_Rate": 4979,
			"Year": 2011,
			"State": "Wyoming",
			"Arrest_Rate": 6000
		},
		{
			"Crime_Rate": 7912,
			"Year": 2012,
			"State": "Alabama",
			"Arrest_Rate": 40
		},
		{
			"Crime_Rate": 6685,
			"Year": 2012,
			"State": "Alaska",
			"Arrest_Rate": 4059
		},
		{
			"Crime_Rate": 7936,
			"Year": 2012,
			"State": "Arizona",
			"Arrest_Rate": 3921
		},
		{
			"Crime_Rate": 8356,
			"Year": 2012,
			"State": "Arkansas",
			"Arrest_Rate": 4677
		},
		{
			"Crime_Rate": 6364,
			"Year": 2012,
			"State": "California",
			"Arrest_Rate": 3229
		},
		{
			"Crime_Rate": 5987,
			"Year": 2012,
			"State": "Colorado",
			"Arrest_Rate": 4121
		},
		{
			"Crime_Rate": 4846,
			"Year": 2012,
			"State": "Connecticut",
			"Arrest_Rate": 3069
		},
		{
			"Crime_Rate": 7798,
			"Year": 2012,
			"State": "Delaware",
			"Arrest_Rate": 4327
		},
		{
			"Crime_Rate": 12195,
			"Year": 2012,
			"State": "District Of Columbia",
			"Arrest_Rate": 0
		},
		{
			"Crime_Rate": 7526,
			"Year": 2012,
			"State": "Florida",
			"Arrest_Rate": 4969
		},
		{
			"Crime_Rate": 7607,
			"Year": 2012,
			"State": "Georgia",
			"Arrest_Rate": 3331
		},
		{
			"Crime_Rate": 6629,
			"Year": 2012,
			"State": "Hawaii",
			"Arrest_Rate": 634
		},
		{
			"Crime_Rate": 4383,
			"Year": 2012,
			"State": "Idaho",
			"Arrest_Rate": 4021
		},
		{
			"Crime_Rate": 6003,
			"Year": 2012,
			"State": "Illinois",
			"Arrest_Rate": 974
		},
		{
			"Crime_Rate": 6747,
			"Year": 2012,
			"State": "Indiana",
			"Arrest_Rate": 2324
		},
		{
			"Crime_Rate": 5107,
			"Year": 2012,
			"State": "Iowa",
			"Arrest_Rate": 3335
		},
		{
			"Crime_Rate": 7026,
			"Year": 2012,
			"State": "Kansas",
			"Arrest_Rate": 2709
		},
		{
			"Crime_Rate": 5601,
			"Year": 2012,
			"State": "Kentucky",
			"Arrest_Rate": 4097
		},
		{
			"Crime_Rate": 8062,
			"Year": 2012,
			"State": "Louisiana",
			"Arrest_Rate": 2671
		},
		{
			"Crime_Rate": 5273,
			"Year": 2012,
			"State": "Maine",
			"Arrest_Rate": 3843
		},
		{
			"Crime_Rate": 6471,
			"Year": 2012,
			"State": "Maryland",
			"Arrest_Rate": 3651
		},
		{
			"Crime_Rate": 5128,
			"Year": 2012,
			"State": "Massachusetts",
			"Arrest_Rate": 2070
		},
		{
			"Crime_Rate": 5954,
			"Year": 2012,
			"State": "Michigan",
			"Arrest_Rate": 2556
		},
		{
			"Crime_Rate": 5598,
			"Year": 2012,
			"State": "Minnesota",
			"Arrest_Rate": 0
		},
		{
			"Crime_Rate": 6141,
			"Year": 2012,
			"State": "Mississippi",
			"Arrest_Rate": 3160
		},
		{
			"Crime_Rate": 7536,
			"Year": 2012,
			"State": "Missouri",
			"Arrest_Rate": 4811
		},
		{
			"Crime_Rate": 5712,
			"Year": 2012,
			"State": "Montana",
			"Arrest_Rate": 3222
		},
		{
			"Crime_Rate": 6037,
			"Year": 2012,
			"State": "Nebraska",
			"Arrest_Rate": 4186
		},
		{
			"Crime_Rate": 6834,
			"Year": 2012,
			"State": "Nevada",
			"Arrest_Rate": 5164
		},
		{
			"Crime_Rate": 5284,
			"Year": 2012,
			"State": "New Hampshire",
			"Arrest_Rate": 3442
		},
		{
			"Crime_Rate": 4673,
			"Year": 2012,
			"State": "New Jersey",
			"Arrest_Rate": 3704
		},
		{
			"Crime_Rate": 8320,
			"Year": 2012,
			"State": "New Mexico",
			"Arrest_Rate": 4719
		},
		{
			"Crime_Rate": 4647,
			"Year": 2012,
			"State": "New York",
			"Arrest_Rate": 1729
		},
		{
			"Crime_Rate": 7449,
			"Year": 2012,
			"State": "North Carolina",
			"Arrest_Rate": 4472
		},
		{
			"Crime_Rate": 4568,
			"Year": 2012,
			"State": "North Dakota",
			"Arrest_Rate": 4147
		},
		{
			"Crime_Rate": 7016,
			"Year": 2012,
			"State": "Ohio",
			"Arrest_Rate": 1967
		},
		{
			"Crime_Rate": 7813,
			"Year": 2012,
			"State": "Oklahoma",
			"Arrest_Rate": 3350
		},
		{
			"Crime_Rate": 6944,
			"Year": 2012,
			"State": "Oregon",
			"Arrest_Rate": 3276
		},
		{
			"Crime_Rate": 5044,
			"Year": 2012,
			"State": "Pennsylvania",
			"Arrest_Rate": 3399
		},
		{
			"Crime_Rate": 5655,
			"Year": 2012,
			"State": "Rhode Island",
			"Arrest_Rate": 3160
		},
		{
			"Crime_Rate": 8787,
			"Year": 2012,
			"State": "South Carolina",
			"Arrest_Rate": 3586
		},
		{
			"Crime_Rate": 4802,
			"Year": 2012,
			"State": "South Dakota",
			"Arrest_Rate": 4240
		},
		{
			"Crime_Rate": 8029,
			"Year": 2012,
			"State": "Tennessee",
			"Arrest_Rate": 5520
		},
		{
			"Crime_Rate": 7541,
			"Year": 2012,
			"State": "Texas",
			"Arrest_Rate": 3872
		},
		{
			"Crime_Rate": 6395,
			"Year": 2012,
			"State": "Utah",
			"Arrest_Rate": 4104
		},
		{
			"Crime_Rate": 5286,
			"Year": 2012,
			"State": "Vermont",
			"Arrest_Rate": 2088
		},
		{
			"Crime_Rate": 4742,
			"Year": 2012,
			"State": "Virginia",
			"Arrest_Rate": 4145
		},
		{
			"Crime_Rate": 7908,
			"Year": 2012,
			"State": "Washington",
			"Arrest_Rate": 2499
		},
		{
			"Crime_Rate": 5434,
			"Year": 2012,
			"State": "West Virginia",
			"Arrest_Rate": 2497
		},
		{
			"Crime_Rate": 5486,
			"Year": 2012,
			"State": "Wisconsin",
			"Arrest_Rate": 5663
		},
		{
			"Crime_Rate": 4991,
			"Year": 2012,
			"State": "Wyoming",
			"Arrest_Rate": 5275
		},
		{
			"Crime_Rate": 7588,
			"Year": 2013,
			"State": "Alabama",
			"Arrest_Rate": 44
		},
		{
			"Crime_Rate": 7121,
			"Year": 2013,
			"State": "Alaska",
			"Arrest_Rate": 4011
		},
		{
			"Crime_Rate": 7597,
			"Year": 2013,
			"State": "Arizona",
			"Arrest_Rate": 4213
		},
		{
			"Crime_Rate": 8162,
			"Year": 2013,
			"State": "Arkansas",
			"Arrest_Rate": 4666
		},
		{
			"Crime_Rate": 6127,
			"Year": 2013,
			"State": "California",
			"Arrest_Rate": 3156
		},
		{
			"Crime_Rate": 5962,
			"Year": 2013,
			"State": "Colorado",
			"Arrest_Rate": 4380
		},
		{
			"Crime_Rate": 4503,
			"Year": 2013,
			"State": "Connecticut",
			"Arrest_Rate": 2658
		},
		{
			"Crime_Rate": 7300,
			"Year": 2013,
			"State": "Delaware",
			"Arrest_Rate": 4034
		},
		{
			"Crime_Rate": 12220,
			"Year": 2013,
			"State": "District Of Columbia",
			"Arrest_Rate": 948
		},
		{
			"Crime_Rate": 7159,
			"Year": 2013,
			"State": "Florida",
			"Arrest_Rate": 4613
		},
		{
			"Crime_Rate": 7571,
			"Year": 2013,
			"State": "Georgia",
			"Arrest_Rate": 3236
		},
		{
			"Crime_Rate": 6960,
			"Year": 2013,
			"State": "Hawaii",
			"Arrest_Rate": 678
		},
		{
			"Crime_Rate": 4211,
			"Year": 2013,
			"State": "Idaho",
			"Arrest_Rate": 3824
		},
		{
			"Crime_Rate": 5430,
			"Year": 2013,
			"State": "Illinois",
			"Arrest_Rate": 937
		},
		{
			"Crime_Rate": 6450,
			"Year": 2013,
			"State": "Indiana",
			"Arrest_Rate": 1965
		},
		{
			"Crime_Rate": 4971,
			"Year": 2013,
			"State": "Iowa",
			"Arrest_Rate": 3279
		},
		{
			"Crime_Rate": 6640,
			"Year": 2013,
			"State": "Kansas",
			"Arrest_Rate": 2700
		},
		{
			"Crime_Rate": 5192,
			"Year": 2013,
			"State": "Kentucky",
			"Arrest_Rate": 4051
		},
		{
			"Crime_Rate": 8227,
			"Year": 2013,
			"State": "Louisiana",
			"Arrest_Rate": 3236
		},
		{
			"Crime_Rate": 4877,
			"Year": 2013,
			"State": "Maine",
			"Arrest_Rate": 3729
		},
		{
			"Crime_Rate": 6289,
			"Year": 2013,
			"State": "Maryland",
			"Arrest_Rate": 2841
		},
		{
			"Crime_Rate": 4931,
			"Year": 2013,
			"State": "Massachusetts",
			"Arrest_Rate": 2018
		},
		{
			"Crime_Rate": 5600,
			"Year": 2013,
			"State": "Michigan",
			"Arrest_Rate": 2544
		},
		{
			"Crime_Rate": 5335,
			"Year": 2013,
			"State": "Minnesota",
			"Arrest_Rate": 2929
		},
		{
			"Crime_Rate": 6030,
			"Year": 2013,
			"State": "Mississippi",
			"Arrest_Rate": 2434
		},
		{
			"Crime_Rate": 7170,
			"Year": 2013,
			"State": "Missouri",
			"Arrest_Rate": 4582
		},
		{
			"Crime_Rate": 5776,
			"Year": 2013,
			"State": "Montana",
			"Arrest_Rate": 2965
		},
		{
			"Crime_Rate": 5827,
			"Year": 2013,
			"State": "Nebraska",
			"Arrest_Rate": 3743
		},
		{
			"Crime_Rate": 6922,
			"Year": 2013,
			"State": "Nevada",
			"Arrest_Rate": 4388
		},
		{
			"Crime_Rate": 4913,
			"Year": 2013,
			"State": "New Hampshire",
			"Arrest_Rate": 3369
		},
		{
			"Crime_Rate": 4350,
			"Year": 2013,
			"State": "New Jersey",
			"Arrest_Rate": 3400
		},
		{
			"Crime_Rate": 8866,
			"Year": 2013,
			"State": "New Mexico",
			"Arrest_Rate": 3140
		},
		{
			"Crime_Rate": 4442,
			"Year": 2013,
			"State": "New York",
			"Arrest_Rate": 1525
		},
		{
			"Crime_Rate": 6907,
			"Year": 2013,
			"State": "North Carolina",
			"Arrest_Rate": 4011
		},
		{
			"Crime_Rate": 4829,
			"Year": 2013,
			"State": "North Dakota",
			"Arrest_Rate": 4233
		},
		{
			"Crime_Rate": 6463,
			"Year": 2013,
			"State": "Ohio",
			"Arrest_Rate": 1938
		},
		{
			"Crime_Rate": 7498,
			"Year": 2013,
			"State": "Oklahoma",
			"Arrest_Rate": 3258
		},
		{
			"Crime_Rate": 6880,
			"Year": 2013,
			"State": "Oregon",
			"Arrest_Rate": 1383
		},
		{
			"Crime_Rate": 4810,
			"Year": 2013,
			"State": "Pennsylvania",
			"Arrest_Rate": 3235
		},
		{
			"Crime_Rate": 5434,
			"Year": 2013,
			"State": "Rhode Island",
			"Arrest_Rate": 2905
		},
		{
			"Crime_Rate": 8315,
			"Year": 2013,
			"State": "South Carolina",
			"Arrest_Rate": 3793
		},
		{
			"Crime_Rate": 4550,
			"Year": 2013,
			"State": "South Dakota",
			"Arrest_Rate": 4147
		},
		{
			"Crime_Rate": 7594,
			"Year": 2013,
			"State": "Tennessee",
			"Arrest_Rate": 5725
		},
		{
			"Crime_Rate": 7356,
			"Year": 2013,
			"State": "Texas",
			"Arrest_Rate": 3516
		},
		{
			"Crime_Rate": 6576,
			"Year": 2013,
			"State": "Utah",
			"Arrest_Rate": 4526
		},
		{
			"Crime_Rate": 4694,
			"Year": 2013,
			"State": "Vermont",
			"Arrest_Rate": 2141
		},
		{
			"Crime_Rate": 4562,
			"Year": 2013,
			"State": "Virginia",
			"Arrest_Rate": 3882
		},
		{
			"Crime_Rate": 8042,
			"Year": 2013,
			"State": "Washington",
			"Arrest_Rate": 2722
		},
		{
			"Crime_Rate": 4938,
			"Year": 2013,
			"State": "West Virginia",
			"Arrest_Rate": 2656
		},
		{
			"Crime_Rate": 4961,
			"Year": 2013,
			"State": "Wisconsin",
			"Arrest_Rate": 5319
		},
		{
			"Crime_Rate": 4833,
			"Year": 2013,
			"State": "Wyoming",
			"Arrest_Rate": 5424
		},
		{
			"Crime_Rate": 7240,
			"Year": 2014,
			"State": "Alabama",
			"Arrest_Rate": 37
		},
		{
			"Crime_Rate": 6867,
			"Year": 2014,
			"State": "Alaska",
			"Arrest_Rate": 3520
		},
		{
			"Crime_Rate": 7231,
			"Year": 2014,
			"State": "Arizona",
			"Arrest_Rate": 3884
		},
		{
			"Crime_Rate": 7676,
			"Year": 2014,
			"State": "Arkansas",
			"Arrest_Rate": 4040
		},
		{
			"Crime_Rate": 5696,
			"Year": 2014,
			"State": "California",
			"Arrest_Rate": 3137
		},
		{
			"Crime_Rate": 5718,
			"Year": 2014,
			"State": "Colorado",
			"Arrest_Rate": 4481
		},
		{
			"Crime_Rate": 4331,
			"Year": 2014,
			"State": "Connecticut",
			"Arrest_Rate": 2999
		},
		{
			"Crime_Rate": 6969,
			"Year": 2014,
			"State": "Delaware",
			"Arrest_Rate": 3931
		},
		{
			"Crime_Rate": 12907,
			"Year": 2014,
			"State": "District Of Columbia",
			"Arrest_Rate": 866
		},
		{
			"Crime_Rate": 7942,
			"Year": 2014,
			"State": "Florida",
			"Arrest_Rate": 4350
		},
		{
			"Crime_Rate": 7338,
			"Year": 2014,
			"State": "Georgia",
			"Arrest_Rate": 3043
		},
		{
			"Crime_Rate": 6641,
			"Year": 2014,
			"State": "Hawaii",
			"Arrest_Rate": 667
		},
		{
			"Crime_Rate": 4163,
			"Year": 2014,
			"State": "Idaho",
			"Arrest_Rate": 3610
		},
		{
			"Crime_Rate": 4916,
			"Year": 2014,
			"State": "Illinois",
			"Arrest_Rate": 840
		},
		{
			"Crime_Rate": 6054,
			"Year": 2014,
			"State": "Indiana",
			"Arrest_Rate": 2178
		},
		{
			"Crime_Rate": 4761,
			"Year": 2014,
			"State": "Iowa",
			"Arrest_Rate": 3238
		},
		{
			"Crime_Rate": 6205,
			"Year": 2014,
			"State": "Kansas",
			"Arrest_Rate": 2352
		},
		{
			"Crime_Rate": 4937,
			"Year": 2014,
			"State": "Kentucky",
			"Arrest_Rate": 4054
		},
		{
			"Crime_Rate": 7968,
			"Year": 2014,
			"State": "Louisiana",
			"Arrest_Rate": 2605
		},
		{
			"Crime_Rate": 4256,
			"Year": 2014,
			"State": "Maine",
			"Arrest_Rate": 3595
		},
		{
			"Crime_Rate": 5926,
			"Year": 2014,
			"State": "Maryland",
			"Arrest_Rate": 3265
		},
		{
			"Crime_Rate": 4521,
			"Year": 2014,
			"State": "Massachusetts",
			"Arrest_Rate": 1864
		},
		{
			"Crime_Rate": 4983,
			"Year": 2014,
			"State": "Michigan",
			"Arrest_Rate": 2487
		},
		{
			"Crime_Rate": 5080,
			"Year": 2014,
			"State": "Minnesota",
			"Arrest_Rate": 2770
		},
		{
			"Crime_Rate": 6425,
			"Year": 2014,
			"State": "Mississippi",
			"Arrest_Rate": 2656
		},
		{
			"Crime_Rate": 6727,
			"Year": 2014,
			"State": "Missouri",
			"Arrest_Rate": 4228
		},
		{
			"Crime_Rate": 5635,
			"Year": 2014,
			"State": "Montana",
			"Arrest_Rate": 2908
		},
		{
			"Crime_Rate": 5641,
			"Year": 2014,
			"State": "Nebraska",
			"Arrest_Rate": 3923
		},
		{
			"Crime_Rate": 6557,
			"Year": 2014,
			"State": "Nevada",
			"Arrest_Rate": 4307
		},
		{
			"Crime_Rate": 4352,
			"Year": 2014,
			"State": "New Hampshire",
			"Arrest_Rate": 3481
		},
		{
			"Crime_Rate": 4001,
			"Year": 2014,
			"State": "New Jersey",
			"Arrest_Rate": 3397
		},
		{
			"Crime_Rate": 8331,
			"Year": 2014,
			"State": "New Mexico",
			"Arrest_Rate": 3905
		},
		{
			"Crime_Rate": 4220,
			"Year": 2014,
			"State": "New York",
			"Arrest_Rate": 1338
		},
		{
			"Crime_Rate": 6423,
			"Year": 2014,
			"State": "North Carolina",
			"Arrest_Rate": 3718
		},
		{
			"Crime_Rate": 4788,
			"Year": 2014,
			"State": "North Dakota",
			"Arrest_Rate": 4145
		},
		{
			"Crime_Rate": 6203,
			"Year": 2014,
			"State": "Ohio",
			"Arrest_Rate": 2106
		},
		{
			"Crime_Rate": 6826,
			"Year": 2014,
			"State": "Oklahoma",
			"Arrest_Rate": 3182
		},
		{
			"Crime_Rate": 6249,
			"Year": 2014,
			"State": "Oregon",
			"Arrest_Rate": 1809
		},
		{
			"Crime_Rate": 4513,
			"Year": 2014,
			"State": "Pennsylvania",
			"Arrest_Rate": 3248
		},
		{
			"Crime_Rate": 4810,
			"Year": 2014,
			"State": "Rhode Island",
			"Arrest_Rate": 2885
		},
		{
			"Crime_Rate": 7947,
			"Year": 2014,
			"State": "South Carolina",
			"Arrest_Rate": 3254
		},
		{
			"Crime_Rate": 4429,
			"Year": 2014,
			"State": "South Dakota",
			"Arrest_Rate": 4146
		},
		{
			"Crime_Rate": 7366,
			"Year": 2014,
			"State": "Tennessee",
			"Arrest_Rate": 5479
		},
		{
			"Crime_Rate": 6881,
			"Year": 2014,
			"State": "Texas",
			"Arrest_Rate": 3153
		},
		{
			"Crime_Rate": 6220,
			"Year": 2014,
			"State": "Utah",
			"Arrest_Rate": 4023
		},
		{
			"Crime_Rate": 3263,
			"Year": 2014,
			"State": "Vermont",
			"Arrest_Rate": 1816
		},
		{
			"Crime_Rate": 4270,
			"Year": 2014,
			"State": "Virginia",
			"Arrest_Rate": 3604
		},
		{
			"Crime_Rate": 8013,
			"Year": 2014,
			"State": "Washington",
			"Arrest_Rate": 2601
		},
		{
			"Crime_Rate": 4689,
			"Year": 2014,
			"State": "West Virginia",
			"Arrest_Rate": 2345
		},
		{
			"Crime_Rate": 4778,
			"Year": 2014,
			"State": "Wisconsin",
			"Arrest_Rate": 4887
		},
		{
			"Crime_Rate": 4342,
			"Year": 2014,
			"State": "Wyoming",
			"Arrest_Rate": 4943
		}
	]
}